trace.vcd
$timescale 1ns $end
$scope module logic $end
$var wire 32 features features $end
$var wire 8 reg_f0 reg_f0 $end
$var wire 8 reg_f1 reg_f1 $end
$var wire 8 reg_f2 reg_f2 $end
$var wire 8 reg_f3 reg_f3 $end
$var wire 8 reg_l1_0 reg_l1_0 $end
$var wire 8 reg_l1_1 reg_l1_1 $end
$var wire 8 reg_l1_2 reg_l1_2 $end
$var wire 8 reg_l1_3 reg_l1_3 $end
$var wire 8 reg_l1_4 reg_l1_4 $end
$var wire 8 reg_l1_5 reg_l1_5 $end
$var wire 8 reg_l1_6 reg_l1_6 $end
$var wire 8 reg_l1_7 reg_l1_7 $end
$var wire 8 reg_l2_0 reg_l2_0 $end
$var wire 8 reg_l2_1 reg_l2_1 $end
$var wire 8 reg_l2_2 reg_l2_2 $end
$var wire 8 reg_l2_3 reg_l2_3 $end
$var wire 8 reg_out_0 reg_out_0 $end
$var wire 8 reg_out_1 reg_out_1 $end
$var wire 8 reg_out_2 reg_out_2 $end
$var wire 8 score0 score0 $end
$var wire 8 score1 score1 $end
$var wire 8 score2 score2 $end
$upscope $end
$enddefinitions $end
$dumpvars
b110111101110000100100000000 features
b0 reg_f0
b0 reg_f1
b0 reg_f2
b0 reg_f3
b0 reg_l1_0
b0 reg_l1_1
b0 reg_l1_2
b0 reg_l1_3
b0 reg_l1_4
b0 reg_l1_5
b0 reg_l1_6
b0 reg_l1_7
b0 reg_l2_0
b0 reg_l2_1
b0 reg_l2_2
b0 reg_l2_3
b0 reg_out_0
b0 reg_out_1
b0 reg_out_2
b0 score0
b0 score1
b0 score2
$end
#0
b110111101110000100100000000 features
b0 reg_f0
b0 reg_f1
b0 reg_f2
b0 reg_f3
b0 reg_l1_0
b0 reg_l1_1
b0 reg_l1_2
b0 reg_l1_3
b0 reg_l1_4
b0 reg_l1_5
b0 reg_l1_6
b0 reg_l1_7
b0 reg_l2_0
b0 reg_l2_1
b0 reg_l2_2
b0 reg_l2_3
b0 reg_out_0
b0 reg_out_1
b0 reg_out_2
b0 score0
b0 score1
b0 score2

#10
b110111101110000100100000000 features
b110 reg_f0
b11110111 reg_f1
b1001 reg_f2
b0 reg_f3
b0 reg_l1_0
b1100 reg_l1_1
b1101 reg_l1_2
b1010 reg_l1_3
b0 reg_l1_4
b0 reg_l1_5
b10011 reg_l1_6
b0 reg_l1_7
b0 reg_l2_0
b1010 reg_l2_1
b0 reg_l2_2
b10010 reg_l2_3
b1100 reg_out_0
b101 reg_out_1
b11101111 reg_out_2
b1100 score0
b101 score1
b11101111 score2

#20
b110111101110000100100000000 features
b110 reg_f0
b11110111 reg_f1
b1001 reg_f2
b0 reg_f3
b0 reg_l1_0
b10101 reg_l1_1
b10000 reg_l1_2
b100 reg_l1_3
b0 reg_l1_4
b0 reg_l1_5
b10101 reg_l1_6
b10001 reg_l1_7
b10000 reg_l2_0
b11000 reg_l2_1
b0 reg_l2_2
b111101 reg_l2_3
b11110111 reg_out_0
b11100 reg_out_1
b11110100 reg_out_2
b11110111 score0
b11100 score1
b11110100 score2

#30
b110111101110000100100000000 features
b110 reg_f0
b11110111 reg_f1
b1001 reg_f2
b0 reg_f3
b0 reg_l1_0
b10101 reg_l1_1
b10000 reg_l1_2
b100 reg_l1_3
b0 reg_l1_4
b0 reg_l1_5
b10101 reg_l1_6
b10001 reg_l1_7
b0 reg_l2_0
b101110 reg_l2_1
b110 reg_l2_2
b110110 reg_l2_3
b11100111 reg_out_0
b111001 reg_out_1
b11100100 reg_out_2
b11100111 score0
b111001 score1
b11100100 score2

#40
b11111110000110101110110111101101 features
b110 reg_f0
b11110111 reg_f1
b1001 reg_f2
b0 reg_f3
b0 reg_l1_0
b10101 reg_l1_1
b10000 reg_l1_2
b100 reg_l1_3
b0 reg_l1_4
b0 reg_l1_5
b10101 reg_l1_6
b10001 reg_l1_7
b0 reg_l2_0
b101110 reg_l2_1
b110 reg_l2_2
b110110 reg_l2_3
b10111101 reg_out_0
b1000010 reg_out_1
b1000 reg_out_2
b10111101 score0
b1000010 score1
b1000 score2

#50
b11111110000110101110110111101101 features
b11111110 reg_f0
b11010 reg_f1
b11101101 reg_f2
b11101101 reg_f3
b0 reg_l1_0
b10101 reg_l1_1
b10000 reg_l1_2
b100 reg_l1_3
b0 reg_l1_4
b0 reg_l1_5
b10101 reg_l1_6
b10001 reg_l1_7
b0 reg_l2_0
b101110 reg_l2_1
b110 reg_l2_2
b110110 reg_l2_3
b10111101 reg_out_0
b1000010 reg_out_1
b1000 reg_out_2
b10111101 score0
b1000010 score1
b1000 score2

#60
b11111110000110101110110111101101 features
b11111110 reg_f0
b11010 reg_f1
b11101101 reg_f2
b11101101 reg_f3
b0 reg_l1_0
b0 reg_l1_1
b11000 reg_l1_2
b11010 reg_l1_3
b1001 reg_l1_4
b11100 reg_l1_5
b1110 reg_l1_6
b0 reg_l1_7
b0 reg_l2_0
b101110 reg_l2_1
b110 reg_l2_2
b110110 reg_l2_3
b10111101 reg_out_0
b1000010 reg_out_1
b1000 reg_out_2
b10111101 score0
b1000010 score1
b1000 score2

#70
b11111110000110101110110111101101 features
b11111110 reg_f0
b11010 reg_f1
b11101101 reg_f2
b11101101 reg_f3
b0 reg_l1_0
b0 reg_l1_1
b11000 reg_l1_2
b11010 reg_l1_3
b1001 reg_l1_4
b11100 reg_l1_5
b1110 reg_l1_6
b0 reg_l1_7
b111010 reg_l2_0
b0 reg_l2_1
b100 reg_l2_2
b110100 reg_l2_3
b10111101 reg_out_0
b1000010 reg_out_1
b1000 reg_out_2
b10111101 score0
b1000010 score1
b1000 score2

#80
b100101111011110001110100011000 features
b11111110 reg_f0
b11010 reg_f1
b11101101 reg_f2
b11101101 reg_f3
b0 reg_l1_0
b0 reg_l1_1
b11000 reg_l1_2
b11010 reg_l1_3
b1001 reg_l1_4
b11100 reg_l1_5
b1110 reg_l1_6
b0 reg_l1_7
b111010 reg_l2_0
b0 reg_l2_1
b100 reg_l2_2
b110100 reg_l2_3
b1000010 reg_out_0
b11100101 reg_out_1
b10100000 reg_out_2
b1000010 score0
b11100101 score1
b10100000 score2

#90
b100101111011110001110100011000 features
b100101 reg_f0
b11101111 reg_f1
b11101 reg_f2
b11000 reg_f3
b0 reg_l1_0
b0 reg_l1_1
b11000 reg_l1_2
b11010 reg_l1_3
b1001 reg_l1_4
b11100 reg_l1_5
b1110 reg_l1_6
b0 reg_l1_7
b111010 reg_l2_0
b0 reg_l2_1
b100 reg_l2_2
b110100 reg_l2_3
b1000010 reg_out_0
b11100101 reg_out_1
b10100000 reg_out_2
b1000010 score0
b11100101 score1
b10100000 score2

#100
b100101111011110001110100011000 features
b100101 reg_f0
b11101111 reg_f1
b11101 reg_f2
b11000 reg_f3
b0 reg_l1_0
b1010000 reg_l1_1
b111 reg_l1_2
b101 reg_l1_3
b0 reg_l1_4
b0 reg_l1_5
b1111 reg_l1_6
b111111 reg_l1_7
b111010 reg_l2_0
b0 reg_l2_1
b100 reg_l2_2
b110100 reg_l2_3
b1000010 reg_out_0
b11100101 reg_out_1
b10100000 reg_out_2
b1000010 score0
b11100101 score1
b10100000 score2

#110
b100101111011110001110100011000 features
b100101 reg_f0
b11101111 reg_f1
b11101 reg_f2
b11000 reg_f3
b0 reg_l1_0
b1010000 reg_l1_1
b111 reg_l1_2
b101 reg_l1_3
b0 reg_l1_4
b0 reg_l1_5
b1111 reg_l1_6
b111111 reg_l1_7
b0 reg_l2_0
b10001100 reg_l2_1
b1100001 reg_l2_2
b11010 reg_l2_3
b1000010 reg_out_0
b11100101 reg_out_1
b10100000 reg_out_2
b1000010 score0
b11100101 score1
b10100000 score2

#120
b100111110100000011100000111 features
b100101 reg_f0
b11101111 reg_f1
b11101 reg_f2
b11000 reg_f3
b0 reg_l1_0
b1010000 reg_l1_1
b111 reg_l1_2
b101 reg_l1_3
b0 reg_l1_4
b0 reg_l1_5
b1111 reg_l1_6
b111111 reg_l1_7
b0 reg_l2_0
b10001100 reg_l2_1
b1100001 reg_l2_2
b11010 reg_l2_3
b1111111 reg_out_0
b1010101 reg_out_1
b10011100 reg_out_2
b1111111 score0
b1010101 score1
b10011100 score2

#130
b100111110100000011100000111 features
b100 reg_f0
b11111010 reg_f1
b111 reg_f2
b111 reg_f3
b0 reg_l1_0
b1010000 reg_l1_1
b111 reg_l1_2
b101 reg_l1_3
b0 reg_l1_4
b0 reg_l1_5
b1111 reg_l1_6
b111111 reg_l1_7
b0 reg_l2_0
b10001100 reg_l2_1
b1100001 reg_l2_2
b11010 reg_l2_3
b1111111 reg_out_0
b1010101 reg_out_1
b10011100 reg_out_2
b1111111 score0
b1010101 score1
b10011100 score2

#140
b100111110100000011100000111 features
b100 reg_f0
b11111010 reg_f1
b111 reg_f2
b111 reg_f3
b0 reg_l1_0
b11100 reg_l1_1
b1001 reg_l1_2
b111 reg_l1_3
b0 reg_l1_4
b0 reg_l1_5
b10011 reg_l1_6
b10010 reg_l1_7
b0 reg_l2_0
b10001100 reg_l2_1
b1100001 reg_l2_2
b11010 reg_l2_3
b1111111 reg_out_0
b1010101 reg_out_1
b10011100 reg_out_2
b1111111 score0
b1010101 score1
b10011100 score2

#150
b100111110100000011100000111 features
b100 reg_f0
b11111010 reg_f1
b111 reg_f2
b111 reg_f3
b0 reg_l1_0
b11100 reg_l1_1
b1001 reg_l1_2
b111 reg_l1_3
b0 reg_l1_4
b0 reg_l1_5
b10011 reg_l1_6
b10010 reg_l1_7
b0 reg_l2_0
b110111 reg_l2_1
b1111 reg_l2_2
b110001 reg_l2_3
b1111111 reg_out_0
b1010101 reg_out_1
b10011100 reg_out_2
b1111111 score0
b1010101 score1
b10011100 score2

#160
b10011111101110000101000000101 features
b100 reg_f0
b11111010 reg_f1
b111 reg_f2
b111 reg_f3
b0 reg_l1_0
b11100 reg_l1_1
b1001 reg_l1_2
b111 reg_l1_3
b0 reg_l1_4
b0 reg_l1_5
b10011 reg_l1_6
b10010 reg_l1_7
b0 reg_l2_0
b110111 reg_l2_1
b1111 reg_l2_2
b110001 reg_l2_3
b10110111 reg_out_0
b101111 reg_out_1
b1111 reg_out_2
b10110111 score0
b101111 score1
b1111 score2

#170
b10011111101110000101000000101 features
b10011 reg_f0
b11110111 reg_f1
b1010 reg_f2
b101 reg_f3
b0 reg_l1_0
b11100 reg_l1_1
b1001 reg_l1_2
b111 reg_l1_3
b0 reg_l1_4
b0 reg_l1_5
b10011 reg_l1_6
b10010 reg_l1_7
b0 reg_l2_0
b110111 reg_l2_1
b1111 reg_l2_2
b110001 reg_l2_3
b10110111 reg_out_0
b101111 reg_out_1
b1111 reg_out_2
b10110111 score0
b101111 score1
b1111 score2

#180
b10011111101110000101000000101 features
b10011 reg_f0
b11110111 reg_f1
b1010 reg_f2
b101 reg_f3
b0 reg_l1_0
b100011 reg_l1_1
b10010 reg_l1_2
b111 reg_l1_3
b0 reg_l1_4
b0 reg_l1_5
b10100 reg_l1_6
b10101 reg_l1_7
b0 reg_l2_0
b110111 reg_l2_1
b1111 reg_l2_2
b110001 reg_l2_3
b10110111 reg_out_0
b101111 reg_out_1
b1111 reg_out_2
b10110111 score0
b101111 score1
b1111 score2

#190
b10011111101110000101000000101 features
b10011 reg_f0
b11110111 reg_f1
b1010 reg_f2
b101 reg_f3
b0 reg_l1_0
b100011 reg_l1_1
b10010 reg_l1_2
b111 reg_l1_3
b0 reg_l1_4
b0 reg_l1_5
b10100 reg_l1_6
b10101 reg_l1_7
b0 reg_l2_0
b111100 reg_l2_1
b10100 reg_l2_2
b111010 reg_l2_3
b10110111 reg_out_0
b101111 reg_out_1
b1111 reg_out_2
b10110111 score0
b101111 score1
b1111 score2

#200
b11111000000011001110110011101111 features
b10011 reg_f0
b11110111 reg_f1
b1010 reg_f2
b101 reg_f3
b0 reg_l1_0
b100011 reg_l1_1
b10010 reg_l1_2
b111 reg_l1_3
b0 reg_l1_4
b0 reg_l1_5
b10100 reg_l1_6
b10101 reg_l1_7
b0 reg_l2_0
b111100 reg_l2_1
b10100 reg_l2_2
b111010 reg_l2_3
b10101101 reg_out_0
b110001 reg_out_1
b10001 reg_out_2
b10101101 score0
b110001 score1
b10001 score2

#210
b11111000000011001110110011101111 features
b11111000 reg_f0
b1100 reg_f1
b11101100 reg_f2
b11101111 reg_f3
b0 reg_l1_0
b100011 reg_l1_1
b10010 reg_l1_2
b111 reg_l1_3
b0 reg_l1_4
b0 reg_l1_5
b10100 reg_l1_6
b10101 reg_l1_7
b0 reg_l2_0
b111100 reg_l2_1
b10100 reg_l2_2
b111010 reg_l2_3
b10101101 reg_out_0
b110001 reg_out_1
b10001 reg_out_2
b10101101 score0
b110001 score1
b10001 score2

#220
b11111000000011001110110011101111 features
b11111000 reg_f0
b1100 reg_f1
b11101100 reg_f2
b11101111 reg_f3
b0 reg_l1_0
b0 reg_l1_1
b11010 reg_l1_2
b10001 reg_l1_3
b100 reg_l1_4
b100001 reg_l1_5
b10101 reg_l1_6
b0 reg_l1_7
b0 reg_l2_0
b111100 reg_l2_1
b10100 reg_l2_2
b111010 reg_l2_3
b10101101 reg_out_0
b110001 reg_out_1
b10001 reg_out_2
b10101101 score0
b110001 score1
b10001 score2

#230
b11111000000011001110110011101111 features
b11111000 reg_f0
b1100 reg_f1
b11101100 reg_f2
b11101111 reg_f3
b0 reg_l1_0
b0 reg_l1_1
b11010 reg_l1_2
b10001 reg_l1_3
b100 reg_l1_4
b100001 reg_l1_5
b10101 reg_l1_6
b0 reg_l1_7
b111000 reg_l2_0
b0 reg_l2_1
b10 reg_l2_2
b111001 reg_l2_3
b10101101 reg_out_0
b110001 reg_out_1
b10001 reg_out_2
b10101101 score0
b110001 score1
b10001 score2

#240
b11111100111110101111111100000010 features
b11111000 reg_f0
b1100 reg_f1
b11101100 reg_f2
b11101111 reg_f3
b0 reg_l1_0
b0 reg_l1_1
b11010 reg_l1_2
b10001 reg_l1_3
b100 reg_l1_4
b100001 reg_l1_5
b10101 reg_l1_6
b0 reg_l1_7
b111000 reg_l2_0
b0 reg_l2_1
b10 reg_l2_2
b111001 reg_l2_3
b111101 reg_out_0
b11110001 reg_out_1
b10100010 reg_out_2
b111101 score0
b11110001 score1
b10100010 score2

#250
b11111100111110101111111100000010 features
b11111100 reg_f0
b11111010 reg_f1
b11111111 reg_f2
b10 reg_f3
b0 reg_l1_0
b0 reg_l1_1
b11010 reg_l1_2
b10001 reg_l1_3
b100 reg_l1_4
b100001 reg_l1_5
b10101 reg_l1_6
b0 reg_l1_7
b111000 reg_l2_0
b0 reg_l2_1
b10 reg_l2_2
b111001 reg_l2_3
b111101 reg_out_0
b11110001 reg_out_1
b10100010 reg_out_2
b111101 score0
b11110001 score1
b10100010 score2

#260
b11111100111110101111111100000010 features
b11111100 reg_f0
b11111010 reg_f1
b11111111 reg_f2
b10 reg_f3
b0 reg_l1_0
b1100 reg_l1_1
b1100 reg_l1_2
b110 reg_l1_3
b0 reg_l1_4
b0 reg_l1_5
b10110 reg_l1_6
b110 reg_l1_7
b111000 reg_l2_0
b0 reg_l2_1
b10 reg_l2_2
b111001 reg_l2_3
b111101 reg_out_0
b11110001 reg_out_1
b10100010 reg_out_2
b111101 score0
b11110001 score1
b10100010 score2

#270
b11111100111110101111111100000010 features
b11111100 reg_f0
b11111010 reg_f1
b11111111 reg_f2
b10 reg_f3
b0 reg_l1_0
b1100 reg_l1_1
b1100 reg_l1_2
b110 reg_l1_3
b0 reg_l1_4
b0 reg_l1_5
b10110 reg_l1_6
b110 reg_l1_7
b110 reg_l2_0
b11110 reg_l2_1
b0 reg_l2_2
b111010 reg_l2_3
b111101 reg_out_0
b11110001 reg_out_1
b10100010 reg_out_2
b111101 score0
b11110001 score1
b10100010 score2

#280
b10101000000010000110100011000 features
b11111100 reg_f0
b11111010 reg_f1
b11111111 reg_f2
b10 reg_f3
b0 reg_l1_0
b1100 reg_l1_1
b1100 reg_l1_2
b110 reg_l1_3
b0 reg_l1_4
b0 reg_l1_5
b10110 reg_l1_6
b110 reg_l1_7
b110 reg_l2_0
b11110 reg_l2_1
b0 reg_l2_2
b111010 reg_l2_3
b11010100 reg_out_0
b1000101 reg_out_1
b11110101 reg_out_2
b11010100 score0
b1000101 score1
b11110101 score2

#290
b10101000000010000110100011000 features
b10101 reg_f0
b1 reg_f1
b1101 reg_f2
b11000 reg_f3
b0 reg_l1_0
b1100 reg_l1_1
b1100 reg_l1_2
b110 reg_l1_3
b0 reg_l1_4
b0 reg_l1_5
b10110 reg_l1_6
b110 reg_l1_7
b110 reg_l2_0
b11110 reg_l2_1
b0 reg_l2_2
b111010 reg_l2_3
b11010100 reg_out_0
b1000101 reg_out_1
b11110101 reg_out_2
b11010100 score0
b1000101 score1
b11110101 score2

#300
b10101000000010000110100011000 features
b10101 reg_f0
b1 reg_f1
b1101 reg_f2
b11000 reg_f3
b0 reg_l1_0
b111101 reg_l1_1
b0 reg_l1_2
b10001 reg_l1_3
b0 reg_l1_4
b0 reg_l1_5
b1011 reg_l1_6
b11110 reg_l1_7
b110 reg_l2_0
b11110 reg_l2_1
b0 reg_l2_2
b111010 reg_l2_3
b11010100 reg_out_0
b1000101 reg_out_1
b11110101 reg_out_2
b11010100 score0
b1000101 score1
b11110101 score2

#310
b10101000000010000110100011000 features
b10101 reg_f0
b1 reg_f1
b1101 reg_f2
b11000 reg_f3
b0 reg_l1_0
b111101 reg_l1_1
b0 reg_l1_2
b10001 reg_l1_3
b0 reg_l1_4
b0 reg_l1_5
b1011 reg_l1_6
b11110 reg_l1_7
b0 reg_l2_0
b1100001 reg_l2_1
b111011 reg_l2_2
b100111 reg_l2_3
b11010100 reg_out_0
b1000101 reg_out_1
b11110101 reg_out_2
b11010100 score0
b1000101 score1
b11110101 score2

#320
b1000111000010000011100000111 features
b10101 reg_f0
b1 reg_f1
b1101 reg_f2
b11000 reg_f3
b0 reg_l1_0
b111101 reg_l1_1
b0 reg_l1_2
b10001 reg_l1_3
b0 reg_l1_4
b0 reg_l1_5
b1011 reg_l1_6
b11110 reg_l1_7
b0 reg_l2_0
b1100001 reg_l2_1
b111011 reg_l2_2
b100111 reg_l2_3
b10010011 reg_out_0
b11011110 reg_out_1
b101101 reg_out_2
b10010011 score0
b11011110 score1
b101101 score2

#330
b1000111000010000011100000111 features
b1000 reg_f0
b11100001 reg_f1
b111 reg_f2
b111 reg_f3
b0 reg_l1_0
b111101 reg_l1_1
b0 reg_l1_2
b10001 reg_l1_3
b0 reg_l1_4
b0 reg_l1_5
b1011 reg_l1_6
b11110 reg_l1_7
b0 reg_l2_0
b1100001 reg_l2_1
b111011 reg_l2_2
b100111 reg_l2_3
b10010011 reg_out_0
b11011110 reg_out_1
b101101 reg_out_2
b10010011 score0
b11011110 score1
b101101 score2

#340
b1000111000010000011100000111 features
b1000 reg_f0
b11100001 reg_f1
b111 reg_f2
b111 reg_f3
b0 reg_l1_0
b11110 reg_l1_1
b10110 reg_l1_2
b0 reg_l1_3
b0 reg_l1_4
b0 reg_l1_5
b11111 reg_l1_6
b101100 reg_l1_7
b0 reg_l2_0
b1100001 reg_l2_1
b111011 reg_l2_2
b100111 reg_l2_3
b10010011 reg_out_0
b11011110 reg_out_1
b101101 reg_out_2
b10010011 score0
b11011110 score1
b101101 score2

#350
b1000111000010000011100000111 features
b1000 reg_f0
b11100001 reg_f1
b111 reg_f2
b111 reg_f3
b0 reg_l1_0
b11110 reg_l1_1
b10110 reg_l1_2
b0 reg_l1_3
b0 reg_l1_4
b0 reg_l1_5
b11111 reg_l1_6
b101100 reg_l1_7
b0 reg_l2_0
b1010010 reg_l2_1
b11011 reg_l2_2
b110101 reg_l2_3
b10010011 reg_out_0
b11011110 reg_out_1
b101101 reg_out_2
b10010011 score0
b11011110 score1
b101101 score2

#360
b111100110000001000000000 features
b1000 reg_f0
b11100001 reg_f1
b111 reg_f2
b111 reg_f3
b0 reg_l1_0
b11110 reg_l1_1
b10110 reg_l1_2
b0 reg_l1_3
b0 reg_l1_4
b0 reg_l1_5
b11111 reg_l1_6
b101100 reg_l1_7
b0 reg_l2_0
b1010010 reg_l2_1
b11011 reg_l2_2
b110101 reg_l2_3
b10011001 reg_out_0
b100100 reg_out_1
b100001 reg_out_2
b10011001 score0
b100100 score1
b100001 score2

#370
b111100110000001000000000 features
b0 reg_f0
b11110011 reg_f1
b10 reg_f2
b0 reg_f3
b0 reg_l1_0
b11110 reg_l1_1
b10110 reg_l1_2
b0 reg_l1_3
b0 reg_l1_4
b0 reg_l1_5
b11111 reg_l1_6
b101100 reg_l1_7
b0 reg_l2_0
b1010010 reg_l2_1
b11011 reg_l2_2
b110101 reg_l2_3
b10011001 reg_out_0
b100100 reg_out_1
b100001 reg_out_2
b10011001 score0
b100100 score1
b100001 score2

#380
b111100110000001000000000 features
b0 reg_f0
b11110011 reg_f1
b10 reg_f2
b0 reg_f3
b0 reg_l1_0
b1101 reg_l1_1
b10010 reg_l1_2
b10 reg_l1_3
b0 reg_l1_4
b0 reg_l1_5
b11001 reg_l1_6
b1111 reg_l1_7
b0 reg_l2_0
b1010010 reg_l2_1
b11011 reg_l2_2
b110101 reg_l2_3
b10011001 reg_out_0
b100100 reg_out_1
b100001 reg_out_2
b10011001 score0
b100100 score1
b100001 score2

#390
b111100110000001000000000 features
b0 reg_f0
b11110011 reg_f1
b10 reg_f2
b0 reg_f3
b0 reg_l1_0
b1101 reg_l1_1
b10010 reg_l1_2
b10 reg_l1_3
b0 reg_l1_4
b0 reg_l1_5
b11001 reg_l1_6
b1111 reg_l1_7
b0 reg_l2_0
b100110 reg_l2_1
b0 reg_l2_2
b111010 reg_l2_3
b10011001 reg_out_0
b100100 reg_out_1
b100001 reg_out_2
b10011001 score0
b100100 score1
b100001 score2

#400
b1101000001010000110100010001 features
b0 reg_f0
b11110011 reg_f1
b10 reg_f2
b0 reg_f3
b0 reg_l1_0
b1101 reg_l1_1
b10010 reg_l1_2
b10 reg_l1_3
b0 reg_l1_4
b0 reg_l1_5
b11001 reg_l1_6
b1111 reg_l1_7
b0 reg_l2_0
b100110 reg_l2_1
b0 reg_l2_2
b111010 reg_l2_3
b11000011 reg_out_0
b1010000 reg_out_1
b10 reg_out_2
b11000011 score0
b1010000 score1
b10 score2

#410
b1101000001010000110100010001 features
b1101 reg_f0
b101 reg_f1
b1101 reg_f2
b10001 reg_f3
b0 reg_l1_0
b1101 reg_l1_1
b10010 reg_l1_2
b10 reg_l1_3
b0 reg_l1_4
b0 reg_l1_5
b11001 reg_l1_6
b1111 reg_l1_7
b0 reg_l2_0
b100110 reg_l2_1
b0 reg_l2_2
b111010 reg_l2_3
b11000011 reg_out_0
b1010000 reg_out_1
b10 reg_out_2
b11000011 score0
b1010000 score1
b10 score2

#420
b1101000001010000110100010001 features
b1101 reg_f0
b101 reg_f1
b1101 reg_f2
b10001 reg_f3
b0 reg_l1_0
b110001 reg_l1_1
b0 reg_l1_2
b10000 reg_l1_3
b0 reg_l1_4
b0 reg_l1_5
b1010 reg_l1_6
b10100 reg_l1_7
b0 reg_l2_0
b100110 reg_l2_1
b0 reg_l2_2
b111010 reg_l2_3
b11000011 reg_out_0
b1010000 reg_out_1
b10 reg_out_2
b11000011 score0
b1010000 score1
b10 score2

#430
b1101000001010000110100010001 features
b1101 reg_f0
b101 reg_f1
b1101 reg_f2
b10001 reg_f3
b0 reg_l1_0
b110001 reg_l1_1
b0 reg_l1_2
b10000 reg_l1_3
b0 reg_l1_4
b0 reg_l1_5
b1010 reg_l1_6
b10100 reg_l1_7
b0 reg_l2_0
b1001100 reg_l2_1
b101010 reg_l2_2
b101000 reg_l2_3
b11000011 reg_out_0
b1010000 reg_out_1
b10 reg_out_2
b11000011 score0
b1010000 score1
b10 score2

#440
b11101100111111101110101111101001 features
b1101 reg_f0
b101 reg_f1
b1101 reg_f2
b10001 reg_f3
b0 reg_l1_0
b110001 reg_l1_1
b0 reg_l1_2
b10000 reg_l1_3
b0 reg_l1_4
b0 reg_l1_5
b1010 reg_l1_6
b10100 reg_l1_7
b0 reg_l2_0
b1001100 reg_l2_1
b101010 reg_l2_2
b101000 reg_l2_3
b10100111 reg_out_0
b11111001 reg_out_1
b11110 reg_out_2
b10100111 score0
b11111001 score1
b11110 score2

#450
b11101100111111101110101111101001 features
b11101100 reg_f0
b11111110 reg_f1
b11101011 reg_f2
b11101001 reg_f3
b0 reg_l1_0
b110001 reg_l1_1
b0 reg_l1_2
b10000 reg_l1_3
b0 reg_l1_4
b0 reg_l1_5
b1010 reg_l1_6
b10100 reg_l1_7
b0 reg_l2_0
b1001100 reg_l2_1
b101010 reg_l2_2
b101000 reg_l2_3
b10100111 reg_out_0
b11111001 reg_out_1
b11110 reg_out_2
b10100111 score0
b11111001 score1
b11110 score2

#460
b11101100111111101110101111101001 features
b11101100 reg_f0
b11111110 reg_f1
b11101011 reg_f2
b11101001 reg_f3
b0 reg_l1_0
b0 reg_l1_1
b100000 reg_l1_2
b101 reg_l1_3
b10 reg_l1_4
b110010 reg_l1_5
b11101 reg_l1_6
b0 reg_l1_7
b0 reg_l2_0
b1001100 reg_l2_1
b101010 reg_l2_2
b101000 reg_l2_3
b10100111 reg_out_0
b11111001 reg_out_1
b11110 reg_out_2
b10100111 score0
b11111001 score1
b11110 score2

#470
b11101100111111101110101111101001 features
b11101100 reg_f0
b11111110 reg_f1
b11101011 reg_f2
b11101001 reg_f3
b0 reg_l1_0
b0 reg_l1_1
b100000 reg_l1_2
b101 reg_l1_3
b10 reg_l1_4
b110010 reg_l1_5
b11101 reg_l1_6
b0 reg_l1_7
b111110 reg_l2_0
b0 reg_l2_1
b1000 reg_l2_2
b111001 reg_l2_3
b10100111 reg_out_0
b11111001 reg_out_1
b11110 reg_out_2
b10100111 score0
b11111001 score1
b11110 score2

#480
b11111010000100001110101011101011 features
b11101100 reg_f0
b11111110 reg_f1
b11101011 reg_f2
b11101001 reg_f3
b0 reg_l1_0
b0 reg_l1_1
b100000 reg_l1_2
b101 reg_l1_3
b10 reg_l1_4
b110010 reg_l1_5
b11101 reg_l1_6
b0 reg_l1_7
b111110 reg_l2_0
b0 reg_l2_1
b1000 reg_l2_2
b111001 reg_l2_3
b1000110 reg_out_0
b11011110 reg_out_1
b10011010 reg_out_2
b1000110 score0
b11011110 score1
b10011010 score2

#490
b11111010000100001110101011101011 features
b11111010 reg_f0
b10000 reg_f1
b11101010 reg_f2
b11101011 reg_f3
b0 reg_l1_0
b0 reg_l1_1
b100000 reg_l1_2
b101 reg_l1_3
b10 reg_l1_4
b110010 reg_l1_5
b11101 reg_l1_6
b0 reg_l1_7
b111110 reg_l2_0
b0 reg_l2_1
b1000 reg_l2_2
b111001 reg_l2_3
b1000110 reg_out_0
b11011110 reg_out_1
b10011010 reg_out_2
b1000110 score0
b11011110 score1
b10011010 score2

#500
b11111010000100001110101011101011 features
b11111010 reg_f0
b10000 reg_f1
b11101010 reg_f2
b11101011 reg_f3
b0 reg_l1_0
b0 reg_l1_1
b11110 reg_l1_2
b10011 reg_l1_3
b101 reg_l1_4
b100100 reg_l1_5
b10101 reg_l1_6
b0 reg_l1_7
b111110 reg_l2_0
b0 reg_l2_1
b1000 reg_l2_2
b111001 reg_l2_3
b1000110 reg_out_0
b11011110 reg_out_1
b10011010 reg_out_2
b1000110 score0
b11011110 score1
b10011010 score2

#510
b11111010000100001110101011101011 features
b11111010 reg_f0
b10000 reg_f1
b11101010 reg_f2
b11101011 reg_f3
b0 reg_l1_0
b0 reg_l1_1
b11110 reg_l1_2
b10011 reg_l1_3
b101 reg_l1_4
b100100 reg_l1_5
b10101 reg_l1_6
b0 reg_l1_7
b111111 reg_l2_0
b0 reg_l2_1
b100 reg_l2_2
b111100 reg_l2_3
b1000110 reg_out_0
b11011110 reg_out_1
b10011010 reg_out_2
b1000110 score0
b11011110 score1
b10011010 score2

#520
b11101110000000011110110011101001 features
b11111010 reg_f0
b10000 reg_f1
b11101010 reg_f2
b11101011 reg_f3
b0 reg_l1_0
b0 reg_l1_1
b11110 reg_l1_2
b10011 reg_l1_3
b101 reg_l1_4
b100100 reg_l1_5
b10101 reg_l1_6
b0 reg_l1_7
b111111 reg_l2_0
b0 reg_l2_1
b100 reg_l2_2
b111100 reg_l2_3
b1000101 reg_out_0
b11100111 reg_out_1
b10011001 reg_out_2
b1000101 score0
b11100111 score1
b10011001 score2

#530
b11101110000000011110110011101001 features
b11101110 reg_f0
b1 reg_f1
b11101100 reg_f2
b11101001 reg_f3
b0 reg_l1_0
b0 reg_l1_1
b11110 reg_l1_2
b10011 reg_l1_3
b101 reg_l1_4
b100100 reg_l1_5
b10101 reg_l1_6
b0 reg_l1_7
b111111 reg_l2_0
b0 reg_l2_1
b100 reg_l2_2
b111100 reg_l2_3
b1000101 reg_out_0
b11100111 reg_out_1
b10011001 reg_out_2
b1000101 score0
b11100111 score1
b10011001 score2

#540
b11101110000000011110110011101001 features
b11101110 reg_f0
b1 reg_f1
b11101100 reg_f2
b11101001 reg_f3
b0 reg_l1_0
b0 reg_l1_1
b11111 reg_l1_2
b111 reg_l1_3
b11 reg_l1_4
b101111 reg_l1_5
b11100 reg_l1_6
b0 reg_l1_7
b111111 reg_l2_0
b0 reg_l2_1
b100 reg_l2_2
b111100 reg_l2_3
b1000101 reg_out_0
b11100111 reg_out_1
b10011001 reg_out_2
b1000101 score0
b11100111 score1
b10011001 score2

